com\etechlogservice\springservice\TechLog.class
com\etechlogservice\springservice\TaskRepository.class
com\etechlogservice\springservice\Application.class
com\etechlogservice\springservice\TechLogEntry.class
com\etechlogservice\springservice\HomeController.class
com\etechlogservice\springservice\TechLogController.class
com\etechlogservice\springservice\Task.class
com\etechlogservice\springservice\TechLogRepository.class
